{
    "fields": [
        {
            "name": "Destination",
            "type": "folder",
            "value": "~/output/"
        }
    ],
    "label": "#file #sink #simple\nSimple component which takes data enqueued to it and writes it out into a file based on the current timestamp.",
    "name": "File Writerfasdfsdfasdf",
    "repo": "",
    "sources": []
}